{
    "general_params": {
        "compounds": [
            {
                "database_deposited": true, 
                "pubchem_id": 42602890, 
                "databases_deposited": [
                    "PubChem"
                ], 
                "compound": "penigequinolone"
            }
        ], 
        "loci": {
            "nucl_acc": [
                {
                    "end_coord": -1, 
                    "Accession": "KX528209", 
                    "start_coord": -1
                }
            ]
        }, 
        "mibig_accession": "BGC0001372", 
        "publications": "25859931", 
        "minimal": true, 
        "biosyn_class": [
            "Terpene"
        ]
    }
}
