{
    "general_params": {
        "compounds": [
            {
                "database_deposited": true, 
                "pubchem_id": 119326, 
                "databases_deposited": [
                    "PubChem"
                ], 
                "compound": "solanapyrone"
            }
        ], 
        "loci": {
            "nucl_acc": [
                {
                    "end_coord": -1, 
                    "Accession": "AB514562", 
                    "start_coord": -1
                }
            ]
        }, 
        "mibig_accession": "BGC0000146", 
        "publications": "26342019,25372118,20486243", 
        "Polyketide": {
            "pks_subclass": [
                "Type I"
            ]
        }, 
        "minimal": true, 
        "biosyn_class": [
            "Polyketide"
        ]
    }
}
