{
    "general_params": {
        "compounds": [
            {
                "database_deposited": true, 
                "pubchem_id": 6442850, 
                "databases_deposited": [
                    "PubChem"
                ], 
                "compound": "AF-toxin"
            }
        ], 
        "loci": {
            "nucl_acc": [
                {
                    "end_coord": -1, 
                    "Accession": "AB179766", 
                    "start_coord": -1
                }
            ]
        }, 
        "mibig_accession": "BGC0000003", 
        "publications": "10.1007/s10327-004-0170-3",
        "biosyn_class": [
            "Polyketide"
        ], 
        "Polyketide": {
            "pks_subclass": [
                "Type I"
            ]
        }, 
        "minimal": true
    }
}
