{
    "general_params": {
        "compounds": [
            {
                "compound": "4,4'-piperazine-2,5-diyldimethyl-bis-phenol"
            }
        ], 
        "loci": {
            "nucl_acc": [
                {
                    "end_coord": 1211563, 
                    "Accession": "NW_002477249", 
                    "start_coord": 1195973
                }, 
                {
                    "end_coord": 1487055, 
                    "Accession": "NW_002477250", 
                    "start_coord": 1470232
                }
            ]
        }, 
        "mibig_accession": "BGC0001234", 
        "publications": [
            "23281040"
        ], 
        "minimal": true, 
        "biosyn_class": [
            "NRP"
        ]
    }
}
