{
    "general_params": {
        "compounds": [
            {
                "compound": "(2S,3R,4S)-3,4-dihydroxy-2-((6-(3-methylbut-2-en-1-yl)-1H-indole-3-carbonyl)oxy)-3,4-dihydro-2H-pyran-6-carboxylic acid"
            }
        ], 
        "loci": {
            "nucl_acc": [
                {
                    "end_coord": -1, 
                    "Accession": "KT895008", 
                    "start_coord": -1
                }
            ]
        }, 
        "mibig_accession": "BGC0001482", 
        "Other": {
            "biosyn_class": [
                "Other"
            ]
        }, 
        "publications": [
            "28166207"
        ], 
        "minimal": true, 
        "biosyn_class": [
            "Other"
        ]
    }
}