{
    "general_params": {
        "compounds": [
            {
                "chem_struct": "C[C@H](O)C1=NC2=C(C=CC=C2)C(=O)N1", 
                "compound": "chrysogine"
            }
        ], 
        "loci": {
            "nucl_acc": [
                {
                    "end_coord": 7283610,
                    "Accession": "NC_026476", 
                    "start_coord": 7266100
                }
            ]
        }, 
        "mibig_accession": "BGC0001545", 
        "publications": "29196288,28708398", 
        "minimal": true, 
        "biosyn_class": [
            "NRP"
        ]
    }
}
