{
    "version": "17", 
    "personal": {
        "submitter_name": "Helge B. Bode", 
        "submitter_institution": "Molecular Biotechnology, Institute for Molecular Bioscience, Goethe University Frankfurt, 60438 Frankfurt/Main, Germany", 
        "submitter_email": "h.bode@bio.uni-frankfurt.de"
    }, 
    "general_params": {
        "mibig_accession": "BGC0000416", 
        "biosyn_class": [
            "NRP"
        ], 
        "publications": "24038745", 
        "loci": {
            "complete": "complete", 
            "nucl_acc": [
                {
                    "Accession": "FN667742", 
                    "start_coord": 2154724, 
                    "end_coord": 2170060, 
                    "conn_comp_cluster": [
                        "Knock-out studies", 
                        "Gene expression correlated with compound production", 
                        "Sequence-based prediction"
                    ]
                }
            ]
        }, 
        "compounds": [
            {
                "compound": "Rhabdopeptide 1", 
                "chem_synonyms": [], 
                "chem_struct": "CC(C)C[C@H](NC)C(=O)N(C)[C@@H](C(C)C)C(=O)N[C@@H](C(C)C)C(=O)N(C)[C@@H](C(C)C)C(=O)NCCc1ccccc1", 
                "molecular_formula": "C32H56N5O4", 
                "mol_mass": 574.432682, 
                "mass_ion_type": "[M+H]+", 
                "chem_act": [
                    "Unknown"
                ]
            }, 
            {
                "compound": "Rhabdopeptide 2", 
                "chem_synonyms": [], 
                "chem_struct": "CN[C@H](C(C)C)C(=O)N(C)[C@H](CC(C)C)C(=O)N(C)[C@H](C(C)C)C(=O)N(C)[C@H](C(C)C)C(=O)NCCC1=CC=CC=C1",
                "molecular_formula": "C33H57N5O4", 
                "mol_mass": 587.85, 
                "mass_ion_type": "[M+H]+", 
                "chem_act": [
                    "Cytotoxic"
                ]
            },
            {
                "compound": "Rhabdopeptide 3",
                "chem_struct": "CN[C@H](CC(C)C)C(=O)N(C)[C@H](C(C)C)C(=O)N[C@H](C(C)C)C(=O)N(C)[C@H](C(C)C)C(=O)N(C)[C@H](C(C)C)C(=O)NCCC1=CC=CC=C1",
                "molecular_formula": "C38H66N6O5",
                "mol_mass": 686.983
            },
            {
                "compound": "Rhabdopeptide 4",
                "chem_struct": "CN[C@H](C(C)C)C(=O)N(C)[C@H](CC(C)C)C(=O)N(C)[C@H](C(C)C)C(=O)N(C)[C@H](C(C)C)C(=O)N(C)[C@H](C(C)C)C(=O)NCCC1=CC=CC=C1",
                "molecular_formula": "C39H68N6O5",
                "mol_mass": 701.01
            }
        ], 
        "genes": {
            "gene": [
                {
                    "gene_name": "rdpA", 
                    "not_in_gbk": false, 
                    "gene_startpos": 2154724, 
                    "gene_endpos": 2159406, 
                    "gene_id": "YP_003712464.1", 
                    "gene_annotation": "NRPS", 
                    "gene_function": "Scaffold biosynthesis", 
                    "evidence_genefunction": [
                        "Knock-out"
                    ], 
                    "mut_pheno": "no production"
                }, 
                {
                    "gene_name": "rdpB", 
                    "not_in_gbk": false, 
                    "gene_startpos": 2159403, 
                    "gene_endpos": 2164067, 
                    "gene_id": "YP_003712465.1", 
                    "gene_annotation": "NRPS", 
                    "gene_function": "Scaffold biosynthesis", 
                    "evidence_genefunction": [
                        "N/A"
                    ], 
                    "mut_pheno": null
                }, 
                {
                    "gene_name": "rdpC", 
                    "not_in_gbk": false, 
                    "gene_startpos": 2164064, 
                    "gene_endpos": 2170060, 
                    "gene_id": "YP_003712466.1", 
                    "gene_annotation": "NRPS", 
                    "gene_function": "Scaffold biosynthesis", 
                    "evidence_genefunction": [
                        "N/A"
                    ], 
                    "mut_pheno": null
                }
            ]
        }, 
        "NRP": {
            "subclass": "Other", 
            "lin_cycl_nrp": "Linear", 
            "nrps_te_type": "None", 
            "nrps_thioesterase": [], 
            "nrps_release_type": "Other", 
            "nrps_genes": [
                {
                    "nrps_gene": "CBJ90287.1", 
                    "nrps_module": [
                        {
                            "module_nr": "1", 
                            "a_substr_spec": {
                                "aa_type": "Proteinogenic", 
                                "prot_adom_spec": "Leucine", 
                                "evidence_a_spec": "Structure-based inference", 
                                "epimerized": false
                            }, 
                            "cdom_subtype": "LCL", 
                            "nrps_mod_doms": "Methylation", 
                            "nrps_mod_skip_iter": "Neither"
                        }
                    ]
                }, 
                {
                    "nrps_gene": "CBJ90288.1", 
                    "nrps_module": [
                        {
                            "module_nr": "2", 
                            "a_substr_spec": {
                                "aa_type": "Proteinogenic", 
                                "prot_adom_spec": "Valine", 
                                "evidence_a_spec": "Structure-based inference", 
                                "epimerized": false
                            }, 
                            "cdom_subtype": "LCL", 
                            "nrps_mod_doms": "Methylation", 
                            "nrps_mod_skip_iter": "Iterated", 
                            "nrps_evidence_skip_iter": "Structure-based inference"
                        }
                    ]
                }, 
                {
                    "nrps_gene": "CBJ90289.1", 
                    "nrps_module": [
                        {
                            "module_nr": "3", 
                            "a_substr_spec": {
                                "aa_type": "Proteinogenic", 
                                "prot_adom_spec": "Valine", 
                                "evidence_a_spec": "Structure-based inference", 
                                "epimerized": false
                            }, 
                            "cdom_subtype": "LCL", 
                            "nrps_mod_doms": "Methylation", 
                            "nrps_mod_skip_iter": "Neither"
                        }, 
                        {
                            "module_nr": "4", 
                            "a_substr_spec": {
                                "epimerized": false
                            }, 
                            "cdom_subtype": "LCL", 
                            "nrps_mod_doms": "None", 
                            "nrps_mod_skip_iter": "Neither"
                        }
                    ]
                }
            ]
        }
    }
}


