{
    "version": "15", 
    "personal": {
        "submitter_name": "Yuta Tsunematsu", 
        "submitter_institution": "University of Shizuoka", 
        "submitter_email": "tsunematsu@u-shizuoka-ken.ac.jp"
    }, 
    "general_params": {
        "mibig_accession": "BGC0001182", 
        "biosyn_class": [
            "NRP", 
            "Polyketide"
        ], 
        "publications": "27759375,23611317", 
        "loci": {
            "complete": "complete", 
            "nucl_acc": [
                {
                    "Accession": "NT_165976", 
                    "start_coord": 3830915, 
                    "end_coord": 3864915, 
                    "conn_comp_cluster": [
                        "Knock-out studies", 
                        "Heterologous expression"
                    ]
                }
            ]
        }, 
        "compounds": [
            {
                "compound": "chaetoglobosins", 
                "chem_synonyms": [], 
                "chem_struct": "CC[C@H]1[C@H]2[C@@H](NC(=O)[C@@]23[C@@H](/C=C/C[C@@H](/C=C(\\\\[C@H](C(=O)/C=C/C3=O)O)/C)C)[C@H]4[C@@]1(O4)C)[C@@H](C)C5=CNC6=CC=CC=C65", 
                "mol_mass": -1, 
                "mass_ion_type": "None", 
                "chem_act": [
                    "Cytotoxic"
                ]
            }
        ], 
        "genes": {
            "gene": [
                {
                    "gene_name": "CHGG_01239 ", 
                    "gene_id": "XP_001220460", 
                    "gene_annotation": "PKS-NRPS hybrid", 
                    "gene_function": "Scaffold biosynthesis", 
                    "evidence_genefunction": [
                        "Knock-out"
                    ], 
                    "mut_pheno": "abolishment of chaetoglobosin A production"
                }, 
                {
                    "gene_name": "CHGG_01240", 
                    "gene_id": "XP_001220461", 
                    "gene_annotation": "enoyl reducctase ", 
                    "gene_function": "Scaffold biosynthesis", 
                    "evidence_genefunction": [
                        "Knock-out"
                    ], 
                    "mut_pheno": "abolishment of chaetoglobosin A production"
                }, 
                {
                    "gene_name": "CHGG_01242-1", 
                    "gene_id": "XP_001220463", 
                    "gene_annotation": "FAD-dependent monooxygenase", 
                    "gene_function": "Tailoring", 
                    "tailoring": "Monooxygenation", 
                    "evidence_genefunction": [
                        "Knock-out"
                    ], 
                    "mut_pheno": "abolishment of chaetoglobosin A production"
                }, 
                {
                    "gene_name": "CHGG_01242-2", 
                    "gene_id": "XP_001220463", 
                    "gene_annotation": "cytochrome P450 oxidoreductase", 
                    "gene_function": "Tailoring", 
                    "tailoring": "Oxidation", 
                    "evidence_genefunction": [
                        "Knock-out", 
                        "Heterologous expression"
                    ], 
                    "mut_pheno": "abolishment of chaetoglobosin A production"
                }, 
                {
                    "gene_name": "CHGG_01243", 
                    "gene_id": "XP_001220464", 
                    "gene_annotation": "cytochrome P450 oxidoreductase", 
                    "gene_function": "Tailoring", 
                    "tailoring": "Oxidation", 
                    "evidence_genefunction": [
                        "Knock-out", 
                        "Heterologous expression"
                    ], 
                    "mut_pheno": "abolishment of chaetoglobosin A production"
                }
            ]
        }, 
        "NRP": {
            "subclass": "Other", 
            "lin_cycl_nrp": "Linear", 
            "nrps_genes": [
                {
                    "nrps_gene": "XP_001220460", 
                    "nrps_module": [
                        {
                            "module_nr": "1", 
                            "a_substr_spec": {
                                "aa_type": "Proteinogenic", 
                                "prot_adom_spec": "Tryptophan", 
                                "evidence_a_spec": "Structure-based inference"
                            }, 
                            "cdom_subtype": "Unknown", 
                            "nrps_mod_doms": "None", 
                            "nrps_mod_skip_iter": "Neither"
                        }
                    ]
                }
            ], 
            "nrps_te_type": "None", 
            "nrps_thioesterase": [], 
            "nrps_release_type": "Unknown"
        }, 
        "Polyketide": {
            "pk_subclass": "Other", 
            "lin_cycl_pk": "Linear", 
            "pks_subclass": [
                "Iterative type I"
            ], 
            "starter_unit": "Acetyl-CoA", 
            "pks_genes": [
                "XP_001220460"
            ], 
            "nr_iterations": 8, 
            "iterative_subtype": "Highly reducing", 
            "pks_te_type": "None", 
            "pks_release_type": "Unknown"
        }
    }
}


