{
    "version": "17", 
    "personal": {
        "submitter_name": "Russell Cox", 
        "submitter_institution": "Leibniz Universit\u00c3\u00a4t Hannover, Institut f\u00c3\u00bcr Organische Chemie", 
        "submitter_email": "russell.cox@oci.uni-hannover.de"
    }, 
    "general_params": {
        "mibig_accession": "BGC0001049", 
        "biosyn_class": [
            "NRP", 
            "Polyketide"
        ], 
        "publications": "21899331, 21675761, 20575135, 19067514, 17216664, 18266306", 
        "loci": {
            "complete": "complete", 
            "nucl_acc": [
                {
                    "Accession": "AM409327", 
                    "start_coord": 1717, 
                    "end_coord": 20893, 
                    "conn_comp_cluster": [
                        "Knock-out studies", 
                        "Heterologous expression"
                    ]
                }
            ]
        }, 
        "compounds": [
            {
                "compound": "Tenellin", 
                "chem_synonyms": [], 
                "database_deposited": true, 
                "databases_deposited": [
                    "ChemSpider"
                ], 
                "chemspider_id": 10207541, 
                "chem_act": [
                    "Unknown"
                ], 
                "chem_moieties": [
                    {
                        "chem_moiety": "Other", 
                        "other_chem_moiety": "2-pyridone", 
                        "moiety_subcluster": [
                            "tens", 
                            "tenc", 
                            "tena"
                        ]
                    }
                ]
            }
        ], 
        "genes": {
            "gene": [
                {
                    "gene_name": "No gene ID", 
                    "not_in_gbk": false, 
                    "gene_startpos": 1, 
                    "gene_endpos": 459, 
                    "gene_id": "CAL69593.1", 
                    "gene_annotation": "hypothetical protein", 
                    "gene_function": "", 
                    "evidence_genefunction": [
                        ""
                    ]
                }, 
                {
                    "gene_name": "tenA", 
                    "not_in_gbk": false, 
                    "gene_startpos": 1717, 
                    "gene_endpos": 3369, 
                    "gene_id": "CAL69594.1", 
                    "gene_annotation": "hypothetical protein", 
                    "gene_function": "Tailoring", 
                    "tailoring": "Oxidation", 
                    "evidence_genefunction": [
                        "Knock-out"
                    ], 
                    "mut_pheno": "pretenellin A"
                }, 
                {
                    "gene_name": "tenB", 
                    "not_in_gbk": false, 
                    "gene_startpos": 3777, 
                    "gene_endpos": 5453, 
                    "gene_id": "CAL69595.1", 
                    "gene_annotation": "hypothetical protein", 
                    "gene_function": "Tailoring", 
                    "tailoring": "Oxidation", 
                    "evidence_genefunction": [
                        "Knock-out"
                    ], 
                    "mut_pheno": "pretenellin B"
                }, 
                {
                    "gene_name": "tenC", 
                    "not_in_gbk": false, 
                    "gene_startpos": 6093, 
                    "gene_endpos": 7259, 
                    "gene_id": "CAL69596.1", 
                    "gene_annotation": "hypothetical protein", 
                    "gene_function": "Scaffold biosynthesis", 
                    "evidence_genefunction": [
                        "Other in vivo study"
                    ], 
                    "mut_pheno": "loss of PKS fidelity among others"
                }, 
                {
                    "gene_name": "tenS", 
                    "not_in_gbk": false, 
                    "gene_startpos": 7941, 
                    "gene_endpos": 20892, 
                    "gene_id": "CAL69597.1", 
                    "gene_annotation": "PKS-NRPS", 
                    "gene_function": "Scaffold biosynthesis", 
                    "evidence_genefunction": [
                        "Other in vivo study"
                    ], 
                    "mut_pheno": "no metabolite"
                }
            ]
        }, 
        "NRP": {
            "subclass": "Other", 
            "lin_cycl_nrp": "Cyclic", 
            "nrps_te_type": "Unknown", 
            "nrps_thioesterase": [], 
            "nrps_release_type": "Other", 
            "nrps_genes": [
                {
                    "nrps_gene": "CAL69597.1", 
                    "nrps_module": [
                        {
                            "module_nr": "2", 
                            "a_substr_spec": {
                                "aa_type": "Proteinogenic", 
                                "prot_adom_spec": "Tyrosine", 
                                "evidence_a_spec": "Structure-based inference", 
                                "epimerized": false
                            }, 
                            "cdom_subtype": "LCL", 
                            "nrps_mod_doms": "None", 
                            "nrps_mod_skip_iter": "Non-elongating"
                        }
                    ]
                }
            ]
        }, 
        "Polyketide": {
            "pk_subclass": "Other", 
            "lin_cycl_pk": "Linear", 
            "pks_subclass": [
                "Iterative type I"
            ], 
            "starter_unit": "Acetyl-CoA", 
            "pks_genes": [], 
            "nr_iterations": 4, 
            "iterative_subtype": "Highly reducing", 
            "iter_cycl_type": "Other", 
            "pks_te_type": "None", 
            "pks_release_type": "Other", 
            "mod_pks_genes": [
                {
                    "mod_pks_gene": "CAL69597.1", 
                    "pks_module": [
                        {
                            "module_nr": "1", 
                            "pks_domains": [
                                "KS", 
                                "AT", 
                                "DH", 
                                "KR"
                            ], 
                            "at_substr_spec": "Acetyl-CoA", 
                            "evidence_at_spec": "Structure-based inference", 
                            "kr_stereochem": "Unknown", 
                            "pks_mod_doms": [
                                "Methylation"
                            ], 
                            "pks_mod_skip_iter": "Iterated", 
                            "pks_evidence_skip_iter": "Activity assay"
                        }
                    ]
                }
            ]
        }
    }
}


